id,code,name,user_type_id:id,reconcile,chart_template_id:id,parent_id:id
1000000-00,1000000-00,Harta,l10n_ict.data_account_type_view_asset,FALSE,l10n_ict,
1010000-00,1010000-00,Cash,l10n_ict.data_account_type_view_asset,FALSE,l10n_ict,1000000-00
1010000-01,1010000-01,Petty Cash,account.data_account_type_liquidity,FALSE,l10n_ict,1010000-00
1010000-02,1010000-02,Cash USD,account.data_account_type_liquidity,FALSE,l10n_ict,1010000-00
1010000-03,1010000-03,Cash SGD,account.data_account_type_liquidity,FALSE,l10n_ict,1010000-00
1010000-04,1010000-04,Cash IDR,account.data_account_type_liquidity,FALSE,l10n_ict,1010000-00
1010000-05,1010000-05,Cash in Transit IDR,account.data_account_type_liquidity,FALSE,l10n_ict,1010000-00
1010000-06,1010000-06,Cash in Transit USD,account.data_account_type_liquidity,FALSE,l10n_ict,1010000-00
1020000-00,1020000-00,Bank,l10n_ict.data_account_type_view_asset,FALSE,l10n_ict,1000000-00
1020000-01,1020000-01,BRI IDR,account.data_account_type_liquidity,FALSE,l10n_ict,1020000-00
1020000-02,1020000-02,BRI USD,account.data_account_type_liquidity,FALSE,l10n_ict,1020000-00
1020000-03,1020000-03,Permata IDR,account.data_account_type_liquidity,FALSE,l10n_ict,1020000-00
1020000-04,1020000-04,Permata USD,account.data_account_type_liquidity,FALSE,l10n_ict,1020000-00
1020000-05,1020000-05,BNI IDR,account.data_account_type_liquidity,FALSE,l10n_ict,1020000-00
1020000-06,1020000-06,BNI USD,account.data_account_type_liquidity,FALSE,l10n_ict,1020000-00
1020000-07,1020000-07,BCA USD,account.data_account_type_liquidity,FALSE,l10n_ict,1020000-00
1020000-08,1020000-08,BCA IDR,account.data_account_type_liquidity,FALSE,l10n_ict,1020000-00
1020000-09,1020000-09,CIMB IDR,account.data_account_type_liquidity,FALSE,l10n_ict,1020000-00
1020000-10,1020000-10,CIMB USD,account.data_account_type_liquidity,FALSE,l10n_ict,1020000-00
1020000-11,1020000-11,Danamon USD,account.data_account_type_liquidity,FALSE,l10n_ict,1020000-00
1020000-12,1020000-12,Danamon IDR,account.data_account_type_liquidity,FALSE,l10n_ict,1020000-00
1020000-13,1020000-13,BII/MayBank USD,account.data_account_type_liquidity,FALSE,l10n_ict,1020000-00
1020000-14,1020000-14,BII/MayBank IDR,account.data_account_type_liquidity,FALSE,l10n_ict,1020000-00
1020000-15,1020000-15,MANDIRI USD,account.data_account_type_liquidity,FALSE,l10n_ict,1020000-00
1020000-16,1020000-16,MANDIRI IDR,account.data_account_type_liquidity,FALSE,l10n_ict,1020000-00
1020000-17,1020000-17,Mega USD,account.data_account_type_liquidity,FALSE,l10n_ict,1020000-00
1020000-18,1020000-18,Mega IDR,account.data_account_type_liquidity,FALSE,l10n_ict,1020000-00
1020000-19,1020000-19,ANZ USD,account.data_account_type_liquidity,FALSE,l10n_ict,1020000-00
1020000-20,1020000-20,ANZ IDR,account.data_account_type_liquidity,FALSE,l10n_ict,1020000-00
1020000-21,1020000-21,UOB USD,account.data_account_type_liquidity,FALSE,l10n_ict,1020000-00
1020000-22,1020000-22,UOB IDR,account.data_account_type_liquidity,FALSE,l10n_ict,1020000-00
1020000-23,1020000-23,PANIN  IDR,account.data_account_type_liquidity,FALSE,l10n_ict,1020000-00
1020000-24,1020000-24,MUAMALAT IDR,account.data_account_type_liquidity,FALSE,l10n_ict,1020000-00
1020000-25,1020000-25,VICTORIA-IDR,account.data_account_type_liquidity,FALSE,l10n_ict,1020000-00
1020000-26,1020000-26,SINAR MAS -IDR,account.data_account_type_liquidity,FALSE,l10n_ict,1020000-00
1030000-00,1030000-00,Deposito,l10n_ict.data_account_type_view_asset,FALSE,l10n_ict,1000000-00
1030000-01,1030000-01,Deposito Berjangka,account.data_account_type_credit_card,FALSE,l10n_ict,1030000-00
1040000-00,1040000-00,Bank Guarantee,l10n_ict.data_account_type_view_asset,FALSE,l10n_ict,1000000-00
1040000-02,1040000-02,Bank Guarantee,account.data_account_type_liquidity,FALSE,l10n_ict,1040000-00
1050000-00,1050000-00,Trade Receivables,l10n_ict.data_account_type_view_asset,FALSE,l10n_ict,1000000-00
1050000-01,1050000-01,Receivables Trade IDR,account.data_account_type_receivable,TRUE,l10n_ict,1050000-00
1050000-02,1050000-02,Receivables Trade USD,account.data_account_type_receivable,TRUE,l10n_ict,1050000-00
1050000-03,1050000-03,Receivables Trade SGD,account.data_account_type_receivable,TRUE,l10n_ict,1050000-00
1050000-04,1050000-04,Receivable Other,account.data_account_type_receivable,TRUE,l10n_ict,1050000-00
1050000-05,1050000-05,Receivable Employee,account.data_account_type_receivable,TRUE,l10n_ict,1050000-00
1060000-00,1060000-00,Prepaid Taxes,l10n_ict.data_account_type_view_asset,FALSE,l10n_ict,1000000-00
1060000-01,1060000-01,Prepaid PPh-21,account.data_account_type_credit_card,FALSE,l10n_ict,1060000-00
1060000-02,1060000-02,Prepaid PPh-23,account.data_account_type_credit_card,FALSE,l10n_ict,1060000-00
1060000-03,1060000-03,Prepaid PPh-25,account.data_account_type_credit_card,FALSE,l10n_ict,1060000-00
1060000-04,1060000-04,PPN Masukan,account.data_account_type_credit_card,FALSE,l10n_ict,1060000-00
1060000-05,1060000-05,PPN Masukan Luar Daerah Pabean,account.data_account_type_credit_card,FALSE,l10n_ict,1060000-00
1060000-06,1060000-06,Receivable PPN Kedua,account.data_account_type_credit_card,FALSE,l10n_ict,1060000-00
1060000-07,1060000-07,Prepaid PPh-22,account.data_account_type_credit_card,FALSE,l10n_ict,1060000-00
1060000-08,1060000-08,Claim PPn,account.data_account_type_credit_card,FALSE,l10n_ict,1060000-00
1060000-09,1060000-09,Prepaid PPh pasal 4 ayat 2,account.data_account_type_credit_card,FALSE,l10n_ict,1060000-00
1070000-00,1070000-00,Prepaid Expences,l10n_ict.data_account_type_view_asset,FALSE,l10n_ict,1000000-00
1070000-01,1070000-01,Prepaid Expense,account.data_account_type_expenses,FALSE,l10n_ict,1070000-00
1070000-02,1070000-02,Prepaid Office Rent,account.data_account_type_expenses,FALSE,l10n_ict,1070000-00
1070000-03,1070000-03,Prepaid Car Park,account.data_account_type_expenses,FALSE,l10n_ict,1070000-00
1070000-04,1070000-04,Prepaid Insurance,account.data_account_type_expenses,FALSE,l10n_ict,1070000-00
1080000-00,1080000-00,Other Receivables,l10n_ict.data_account_type_view_asset,FALSE,l10n_ict,1000000-00
1080000-01,1080000-01,Deposit Telephone,account.data_account_type_other_income,FALSE,l10n_ict,1080000-00
1080000-02,1080000-02,Deposit Office Rent,account.data_account_type_other_income,FALSE,l10n_ict,1080000-00
1080000-03,1080000-03,Deposit Carpark,account.data_account_type_other_income,FALSE,l10n_ict,1080000-00
1080000-04,1080000-04,Receivable Other,account.data_account_type_other_income,FALSE,l10n_ict,1080000-00
1080000-05,1080000-05,Advance Payment,account.data_account_type_other_income,FALSE,l10n_ict,1080000-00
1080000-06,1080000-06,Due From Affiliation,account.data_account_type_other_income,FALSE,l10n_ict,1080000-00
1080000-07,1080000-07,Claim for Tax Refund,account.data_account_type_other_income,FALSE,l10n_ict,1080000-00
1080000-08,1080000-08,Abroad Fiskal,account.data_account_type_other_income,FALSE,l10n_ict,1080000-00
1080000-09,1080000-09,Safe Deposit Box,account.data_account_type_other_income,FALSE,l10n_ict,1080000-00
1080000-10,1080000-10,Deposit Blue Bird,account.data_account_type_other_income,FALSE,l10n_ict,1080000-00
1080000-11,1080000-11,Receivable Employee,account.data_account_type_other_income,FALSE,l10n_ict,1080000-00
1080010-10,1080010-10,Account Asset,account.data_account_type_other_income,FALSE,l10n_ict,1080000-00
1080010-11,1080010-11,Account Accumulation,account.data_account_type_other_income,FALSE,l10n_ict,1080000-00
1090000-00,1090000-00,Fixed Assets,l10n_ict.data_account_type_view_asset,FALSE,l10n_ict,1000000-00
1090000-00,1090000-00,Fixed Assets,l10n_ict.data_account_type_view_asset,FALSE,l10n_ict,1000000-00
1090000-01,1090000-01,Book Value Fixed Assets,account.data_account_type_fixed_assets,FALSE,l10n_ict,1090000-00
1090000-01,1090000-01,Book Value Fixed Assets,account.data_account_type_fixed_assets,FALSE,l10n_ict,1090000-00
1090000-02,1090000-02,Accumulated Deppreciation Assets,account.data_account_type_fixed_assets,FALSE,l10n_ict,1090000-00
1090000-02,1090000-02,Accumulated Deppreciation Assets,account.data_account_type_fixed_assets,FALSE,l10n_ict,1090000-00
1100000-00,1100000-00,Leased Asset,l10n_ict.data_account_type_view_asset,FALSE,l10n_ict,1000000-00
1100000-01,1100000-01,Book Value Leased Asset,account.data_account_type_fixed_assets,FALSE,l10n_ict,1100000-00
1100000-02,1100000-02,Accumulated Leased Asset,account.data_account_type_fixed_assets,FALSE,l10n_ict,1100000-00
1110000-00,1110000-00,Other Assets,l10n_ict.data_account_type_view_asset,FALSE,l10n_ict,1000000-00
1110000-01,1110000-01,Deposit Telephone,account.data_account_type_fixed_assets,FALSE,l10n_ict,1110000-00
1110000-02,1110000-02,Deposit Office Rent,account.data_account_type_fixed_assets,FALSE,l10n_ict,1110000-00
1110000-03,1110000-03,Safe Deposit Box,account.data_account_type_fixed_assets,FALSE,l10n_ict,1110000-00
1110000-04,1110000-04,Deposit Blue Bird,account.data_account_type_fixed_assets,FALSE,l10n_ict,1110000-00
1110000-05,1110000-05,Bank Guarantee,account.data_account_type_fixed_assets,FALSE,l10n_ict,1110000-00
1110000-06,1110000-06,Investment in share on Stock,account.data_account_type_fixed_assets,FALSE,l10n_ict,1110000-00
1120000-00,1120000-00,Deferred Tax Asset ,l10n_ict.data_account_type_view_asset,FALSE,l10n_ict,1000000-00
1120000-01,1120000-01,Deferred Tax Asset,account.data_account_type_fixed_assets,FALSE,l10n_ict,1120000-00
1130000-00,1130000-00,Investment,l10n_ict.data_account_type_view_asset,FALSE,l10n_ict,1000000-00
1130000-01,1130000-01,Investment in Associates - PT Difini Teknologi,account.data_account_type_credit_card,FALSE,l10n_ict,1130000-00
1130000-02,1130000-02,Investment in Associates - PT Duta Sarana Inovasi,account.data_account_type_credit_card,FALSE,l10n_ict,1130000-00
1130000-03,1130000-03,Investment in Associates - PT Solusi Teknologi Logistik,account.data_account_type_credit_card,FALSE,l10n_ict,1130000-00
2000000-00,2000000-00,Kewajiban,l10n_ict.data_account_type_view_liability,FALSE,l10n_ict,
2010000-00,2010000-00,Trade Payables,l10n_ict.data_account_type_view_liability,FALSE,l10n_ict,2000000-00
2010000-01,2010000-01,Payable Trade IDR,account.data_account_type_payable,TRUE,l10n_ict,2010000-00
2010000-02,2010000-02,Payable Trade USD,account.data_account_type_payable,TRUE,l10n_ict,2010000-00
2020000-00,2020000-00,Other Payables,l10n_ict.data_account_type_view_liability,FALSE,l10n_ict,2000000-00
2020000-01,2020000-01,Payable Jamsostek/BPJS 2%,account.data_account_type_payable,TRUE,l10n_ict,2020000-00
2020000-02,2020000-02,Payable Jamsostek/BPJS 4%,account.data_account_type_payable,TRUE,l10n_ict,2020000-00
2020000-03,2020000-03,Payable Other,account.data_account_type_payable,TRUE,l10n_ict,2020000-00
2020000-04,2020000-04,Customer Advance,account.data_account_type_payable,TRUE,l10n_ict,2020000-00
2020000-05,2020000-05,Unearned Revenue,account.data_account_type_payable,TRUE,l10n_ict,2020000-00
2020000-06,2020000-06,Accrued Expense,account.data_account_type_payable,TRUE,l10n_ict,2020000-00
2030000-00,2030000-00,Financial Institution Loan,l10n_ict.data_account_type_view_liability,FALSE,l10n_ict,2000000-00
2030000-01,2030000-01,Financial Inst. Loan Current Maturities,account.data_account_type_credit_card,FALSE,l10n_ict,2030000-00
2030000-02,2030000-02,Financial Inst. Loan net current maturities,account.data_account_type_credit_card,FALSE,l10n_ict,2030000-00
2040000-00,2040000-00,Tax Payables,l10n_ict.data_account_type_view_liability,FALSE,l10n_ict,2000000-00
2040000-01,2040000-01,Payable PPh-21,account.data_account_type_credit_card,FALSE,l10n_ict,2040000-00
2040000-02,2040000-02,Payable PPh-23,account.data_account_type_credit_card,FALSE,l10n_ict,2040000-00
2040000-03,2040000-03,Payable PPh-25,account.data_account_type_credit_card,FALSE,l10n_ict,2040000-00
2040000-04,2040000-04,Payable PPh Ps-4 (2),account.data_account_type_credit_card,FALSE,l10n_ict,2040000-00
2040000-05,2040000-05,Payable PPh-26,account.data_account_type_credit_card,FALSE,l10n_ict,2040000-00
2040000-06,2040000-06,Payable PPN Masukan,account.data_account_type_credit_card,FALSE,l10n_ict,2040000-00
2040000-07,2040000-07,Payable PPN Keluaran,account.data_account_type_credit_card,FALSE,l10n_ict,2040000-00
2040000-08,2040000-08,PPH 29 Tahunan,account.data_account_type_credit_card,FALSE,l10n_ict,2040000-00
2040000-09,2040000-09,Deferred Tax Liability,account.data_account_type_credit_card,FALSE,l10n_ict,2040000-00
2040000-10,2040000-10,PPN WAPU,account.data_account_type_credit_card,FALSE,l10n_ict,2040000-00
2040000-11,2040000-11,Payable PPN LUar Daerah Pabean,account.data_account_type_credit_card,FALSE,l10n_ict,2040000-00
2050000-00,2050000-00,Affiliations,l10n_ict.data_account_type_view_liability,FALSE,l10n_ict,2000000-00
2050000-01,2050000-01,Due to Affiliations,account.data_account_type_credit_card,FALSE,l10n_ict,2050000-00
2050000-02,2050000-02,Due to Affiliations,account.data_account_type_credit_card,FALSE,l10n_ict,2050000-00
2050000-03,2050000-03,Due to Affiliations,account.data_account_type_credit_card,FALSE,l10n_ict,2050000-00
2050000-04,2050000-04,Due From Affiliation,account.data_account_type_credit_card,FALSE,l10n_ict,2050000-00
2060000-00,2060000-00,Benefit,l10n_ict.data_account_type_view_liability,FALSE,l10n_ict,2000000-00
2060000-01,2060000-01,Estimated For Employee Benefit,account.data_account_type_credit_card,FALSE,l10n_ict,2060000-00
3000000-00,3000000-00,Modal,l10n_ict.data_account_type_view_equity,FALSE,l10n_ict,
3010000-00,3010000-00,Capital Deficiency,l10n_ict.data_account_type_view_equity,FALSE,l10n_ict,3000000-00
3010000-01,3010000-01,Capital Stock,account.data_account_type_equity,FALSE,l10n_ict,3010000-00
3010000-02,3010000-02,Retained Earnings,l10n_ict.data_account_type_return_earnings,FALSE,l10n_ict,3010000-00
3010000-03,3010000-03,Current Profit Year,account.data_unaffected_earnings,FALSE,l10n_ict,3010000-00
3010000-04,3010000-04,Other Comprehensif Income (OCI),account.data_account_type_equity,FALSE,l10n_ict,3010000-00
3010000-05,3010000-05,Additional Paid in Capital,account.data_account_type_equity,FALSE,l10n_ict,3010000-00
3010000-06,3010000-06,Historical Balance,account.data_account_type_equity,FALSE,l10n_ict,3010000-00
4000000-00,4000000-00,Pendapatan,l10n_ict.data_account_type_view_income,FALSE,l10n_ict,
4010000-00,4010000-00,Sales Hardware,l10n_ict.data_account_type_view_income,FALSE,l10n_ict,4000000-00
4010000-01,4010000-01,Sales ORACLE,account.data_account_type_revenue,FALSE,l10n_ict,4010000-00
4010000-02,4010000-02,Sales Hitachi,account.data_account_type_revenue,FALSE,l10n_ict,4010000-00
4010000-03,4010000-03,Sales Veritas,account.data_account_type_revenue,FALSE,l10n_ict,4010000-00
4010000-04,4010000-04,Sales FalconStor,account.data_account_type_revenue,FALSE,l10n_ict,4010000-00
4010000-05,4010000-05,Sales HP,account.data_account_type_revenue,FALSE,l10n_ict,4010000-00
4010000-06,4010000-06,Sales HDS,account.data_account_type_revenue,FALSE,l10n_ict,4010000-00
4010000-07,4010000-07,Sales Lenovo,account.data_account_type_revenue,FALSE,l10n_ict,4010000-00
4010000-08,4010000-08,Sales DELL (EMC),account.data_account_type_revenue,FALSE,l10n_ict,4010000-00
4010000-09,4010000-09,Sales Brocade,account.data_account_type_revenue,FALSE,l10n_ict,4010000-00
4010000-10,4010000-10,Sales VMWare,account.data_account_type_revenue,FALSE,l10n_ict,4010000-00
4010000-99,4010000-99,Sales H/W Others,account.data_account_type_revenue,FALSE,l10n_ict,4010000-00
4020000-00,4020000-00,Sales Software,l10n_ict.data_account_type_view_income,FALSE,l10n_ict,4000000-00
4020000-01,4020000-01,Sales ORACLE,account.data_account_type_revenue,FALSE,l10n_ict,4020000-00
4020000-02,4020000-02,Sales Hitachi,account.data_account_type_revenue,FALSE,l10n_ict,4020000-00
4020000-03,4020000-03,Sales Veritas,account.data_account_type_revenue,FALSE,l10n_ict,4020000-00
4020000-04,4020000-04,Sales FalconStor,account.data_account_type_revenue,FALSE,l10n_ict,4020000-00
4020000-05,4020000-05,Sales HP,account.data_account_type_revenue,FALSE,l10n_ict,4020000-00
4020000-06,4020000-06,Sales HDS,account.data_account_type_revenue,FALSE,l10n_ict,4020000-00
4020000-07,4020000-07,Sales Lenovo,account.data_account_type_revenue,FALSE,l10n_ict,4020000-00
4020000-08,4020000-08,Sales DELL (EMC),account.data_account_type_revenue,FALSE,l10n_ict,4020000-00
4020000-09,4020000-09,Sales Brocade,account.data_account_type_revenue,FALSE,l10n_ict,4020000-00
4020000-10,4020000-10,Sales VMWare,account.data_account_type_revenue,FALSE,l10n_ict,4020000-00
4020000-99,4020000-99,Sales S/W Others,account.data_account_type_revenue,FALSE,l10n_ict,4020000-00
4030000-00,4030000-00,Sales Services,l10n_ict.data_account_type_view_income,FALSE,l10n_ict,4000000-00
4030000-01,4030000-01,Sales ORACLE,account.data_account_type_revenue,FALSE,l10n_ict,4030000-00
4030000-02,4030000-02,Sales Hitachi,account.data_account_type_revenue,FALSE,l10n_ict,4030000-00
4030000-03,4030000-03,Sales Veritas,account.data_account_type_revenue,FALSE,l10n_ict,4030000-00
4030000-04,4030000-04,Sales FalconStor,account.data_account_type_revenue,FALSE,l10n_ict,4030000-00
4030000-05,4030000-05,Sales HP,account.data_account_type_revenue,FALSE,l10n_ict,4030000-00
4030000-06,4030000-06,Sales HDS,account.data_account_type_revenue,FALSE,l10n_ict,4030000-00
4030000-07,4030000-07,Sales LENOVO,account.data_account_type_revenue,FALSE,l10n_ict,4030000-00
4030000-08,4030000-08,Sales DELL (EMC),account.data_account_type_revenue,FALSE,l10n_ict,4030000-00
4030000-09,4030000-09,Sales Brocade,account.data_account_type_revenue,FALSE,l10n_ict,4030000-00
4030000-10,4030000-10,Sales VMWare,account.data_account_type_revenue,FALSE,l10n_ict,4030000-00
4030000-11,4030000-11,Sales Security Internal,account.data_account_type_revenue,FALSE,l10n_ict,4030000-00
4030000-12,4030000-12,Professional Services,account.data_account_type_revenue,FALSE,l10n_ict,4030000-00
4030000-13,4030000-13,Sales HP Implementation,account.data_account_type_revenue,FALSE,l10n_ict,4030000-00
4030000-14,4030000-14,Sales maintenance,account.data_account_type_revenue,FALSE,l10n_ict,4030000-00
4030000-99,4030000-99,Sales Service Others,account.data_account_type_revenue,FALSE,l10n_ict,4030000-00
4040000-00,4040000-00,Sales Maintenance,l10n_ict.data_account_type_view_income,FALSE,l10n_ict,4000000-00
4040000-01,4040000-01,Sales ORACLE,account.data_account_type_revenue,FALSE,l10n_ict,4040000-00
4040000-02,4040000-02,Sales Hitachi,account.data_account_type_revenue,FALSE,l10n_ict,4040000-00
4040000-03,4040000-03,Sales Veritas,account.data_account_type_revenue,FALSE,l10n_ict,4040000-00
4040000-04,4040000-04,Sales FalconStor,account.data_account_type_revenue,FALSE,l10n_ict,4040000-00
4040000-05,4040000-05,Sales HP,account.data_account_type_revenue,FALSE,l10n_ict,4040000-00
4040000-06,4040000-06,Sales HDS,account.data_account_type_revenue,FALSE,l10n_ict,4040000-00
4040000-07,4040000-07,Sales Lenovo,account.data_account_type_revenue,FALSE,l10n_ict,4040000-00
4040000-08,4040000-08,Sales DELL (EMC),account.data_account_type_revenue,FALSE,l10n_ict,4040000-00
4040000-09,4040000-09,Sales Brocade,account.data_account_type_revenue,FALSE,l10n_ict,4040000-00
4040000-10,4040000-10,Sales VMWare,account.data_account_type_revenue,FALSE,l10n_ict,4040000-00
5000000-00,5000000-00,Biaya atas Pendapatan,l10n_ict.data_account_type_view_expense,FALSE,l10n_ict,
5010000-00,5010000-00,COGS Hardware,l10n_ict.data_account_type_view_expense,FALSE,l10n_ict,5000000-00
5010000-01,5010000-01,COGS ORACLE,account.data_account_type_direct_costs,FALSE,l10n_ict,5010000-00
5010000-02,5010000-02,COGS Hitachi,account.data_account_type_direct_costs,FALSE,l10n_ict,5010000-00
5010000-03,5010000-03,COGS Veritas,account.data_account_type_direct_costs,FALSE,l10n_ict,5010000-00
5010000-04,5010000-04,COGS FalconStor,account.data_account_type_direct_costs,FALSE,l10n_ict,5010000-00
5010000-05,5010000-05,COGS HP,account.data_account_type_direct_costs,FALSE,l10n_ict,5010000-00
5010000-06,5010000-06,COGS HDS,account.data_account_type_direct_costs,FALSE,l10n_ict,5010000-00
5010000-07,5010000-07,COGS LENOVO,account.data_account_type_direct_costs,FALSE,l10n_ict,5010000-00
5010000-08,5010000-08,COGS DELL (EMC),account.data_account_type_direct_costs,FALSE,l10n_ict,5010000-00
5010000-09,5010000-09,COGS Brocade,account.data_account_type_direct_costs,FALSE,l10n_ict,5010000-00
5010000-10,5010000-10,COGS VMWare,account.data_account_type_direct_costs,FALSE,l10n_ict,5010000-00
5010000-99,5010000-99,COGS H/W Others,account.data_account_type_direct_costs,FALSE,l10n_ict,5010000-00
5020000-00,5020000-00,COGS Software,l10n_ict.data_account_type_view_expense,FALSE,l10n_ict,5000000-00
5020000-01,5020000-01,COGS ORACLE,account.data_account_type_direct_costs,FALSE,l10n_ict,5020000-00
5020000-02,5020000-02,COGS Hitachi,account.data_account_type_direct_costs,FALSE,l10n_ict,5020000-00
5020000-03,5020000-03,COGS Veritas,account.data_account_type_direct_costs,FALSE,l10n_ict,5020000-00
5020000-04,5020000-04,COGS FalconStor,account.data_account_type_direct_costs,FALSE,l10n_ict,5020000-00
5020000-05,5020000-05,COGS HP,account.data_account_type_direct_costs,FALSE,l10n_ict,5020000-00
5020000-06,5020000-06,COGS HDS,account.data_account_type_direct_costs,FALSE,l10n_ict,5020000-00
5020000-07,5020000-07,COGS LENOVO,account.data_account_type_direct_costs,FALSE,l10n_ict,5020000-00
5020000-08,5020000-08,COGS DELL (EMC),account.data_account_type_direct_costs,FALSE,l10n_ict,5020000-00
5020000-09,5020000-09,COGS Brocade,account.data_account_type_direct_costs,FALSE,l10n_ict,5020000-00
5020000-10,5020000-10,COGS VMWare,account.data_account_type_direct_costs,FALSE,l10n_ict,5020000-00
5020000-99,5020000-99,COGS S/W Others,account.data_account_type_direct_costs,FALSE,l10n_ict,5020000-00
5030000-00,5030000-00,COGS Services,l10n_ict.data_account_type_view_expense,FALSE,l10n_ict,5000000-00
5030000-01,5030000-01,COGS ORACLE,account.data_account_type_direct_costs,FALSE,l10n_ict,5030000-00
5030000-02,5030000-02,COGS Hitachi,account.data_account_type_direct_costs,FALSE,l10n_ict,5030000-00
5030000-03,5030000-03,COGS Veritas,account.data_account_type_direct_costs,FALSE,l10n_ict,5030000-00
5030000-04,5030000-04,COGS Falcon Stor,account.data_account_type_direct_costs,FALSE,l10n_ict,5030000-00
5030000-05,5030000-05,COGS HP,account.data_account_type_direct_costs,FALSE,l10n_ict,5030000-00
5030000-06,5030000-06,COGS HDS,account.data_account_type_direct_costs,FALSE,l10n_ict,5030000-00
5030000-07,5030000-07,COGS LENOVO,account.data_account_type_direct_costs,FALSE,l10n_ict,5030000-00
5030000-08,5030000-08,COGS DELL (EMC),account.data_account_type_direct_costs,FALSE,l10n_ict,5030000-00
5030000-09,5030000-09,COGS Brocade,account.data_account_type_direct_costs,FALSE,l10n_ict,5030000-00
5030000-10,5030000-10,COGS VMWare,account.data_account_type_direct_costs,FALSE,l10n_ict,5030000-00
5030000-11,5030000-11,COGS Security Internal,account.data_account_type_direct_costs,FALSE,l10n_ict,5030000-00
5030000-12,5030000-12,COGS Professional Services,account.data_account_type_direct_costs,FALSE,l10n_ict,5030000-00
5030000-13,5030000-13,COGS Inspection Fee,account.data_account_type_direct_costs,FALSE,l10n_ict,5030000-00
5030000-99,5030000-99,COGS Services Others,account.data_account_type_direct_costs,FALSE,l10n_ict,5030000-00
5040000-00,5040000-00,COGS Spare Part,l10n_ict.data_account_type_view_expense,FALSE,l10n_ict,5000000-00
5040000-01,5040000-01,COGS Training,account.data_account_type_direct_costs,FALSE,l10n_ict,5040000-00
5040000-02,5040000-02,COGS Spare Part,account.data_account_type_direct_costs,FALSE,l10n_ict,5040000-00
5040000-03,5040000-03,COGS Spare Part & Maintenance,account.data_account_type_direct_costs,FALSE,l10n_ict,5040000-00
5040000-04,5040000-04,COGS Transport,account.data_account_type_direct_costs,FALSE,l10n_ict,5040000-00
5050000-00,5050000-00,Vendor Credit Note,l10n_ict.data_account_type_view_expense,FALSE,l10n_ict,5000000-00
5050000-01,5050000-01,Vendor Credit Note ORACLE,account.data_account_type_direct_costs,FALSE,l10n_ict,5050000-00
5050000-02,5050000-02,Vendor Credit Note Hitachi,account.data_account_type_direct_costs,FALSE,l10n_ict,5050000-00
5050000-03,5050000-03,Vendor Credit Note Veritas,account.data_account_type_direct_costs,FALSE,l10n_ict,5050000-00
5050000-04,5050000-04,Vendor Credit Note Folconsfor,account.data_account_type_direct_costs,FALSE,l10n_ict,5050000-00
5050000-05,5050000-05,Vendor Credit Note HP,account.data_account_type_direct_costs,FALSE,l10n_ict,5050000-00
5050000-06,5050000-06,Vendor Credit Note Cybertrust,account.data_account_type_direct_costs,FALSE,l10n_ict,5050000-00
5050000-07,5050000-07,Vendor Credit Note Other,account.data_account_type_direct_costs,FALSE,l10n_ict,5050000-00
5060000-00,5060000-00,COGS Maintenance,l10n_ict.data_account_type_view_expense,FALSE,l10n_ict,5000000-00
5060000-01,5060000-01,COGS ORACLE,account.data_account_type_direct_costs,FALSE,l10n_ict,5060000-00
5060000-02,5060000-02,COGS Hitachi,account.data_account_type_direct_costs,FALSE,l10n_ict,5060000-00
5060000-03,5060000-03,COGS Veritas,account.data_account_type_direct_costs,FALSE,l10n_ict,5060000-00
5060000-04,5060000-04,COGS Falcon Stor,account.data_account_type_direct_costs,FALSE,l10n_ict,5060000-00
5060000-05,5060000-05,COGS HP,account.data_account_type_direct_costs,FALSE,l10n_ict,5060000-00
5060000-06,5060000-06,COGS HDS,account.data_account_type_direct_costs,FALSE,l10n_ict,5060000-00
5060000-07,5060000-07,COGS LENOVO,account.data_account_type_direct_costs,FALSE,l10n_ict,5060000-00
5060000-08,5060000-08,COGS DELL (EMC),account.data_account_type_direct_costs,FALSE,l10n_ict,5060000-00
5060000-09,5060000-09,COGS Brocade,account.data_account_type_direct_costs,FALSE,l10n_ict,5060000-00
5060000-10,5060000-10,COGS VMWare,account.data_account_type_direct_costs,FALSE,l10n_ict,5060000-00
7000000-00,7000000-00,Pengeluaran ,l10n_ict.data_account_type_view_expense,FALSE,l10n_ict,
7010000-00,7010000-00,Allowance,l10n_ict.data_account_type_view_expense,FALSE,l10n_ict,7000000-00
7010000-01,7010000-01,Medical,account.data_account_type_expenses,FALSE,l10n_ict,7010000-00
7010000-02,7010000-02,Asuransi,account.data_account_type_expenses,FALSE,l10n_ict,7010000-00
7020000-00,7020000-00,Salary,l10n_ict.data_account_type_view_expense,FALSE,l10n_ict,7000000-00
7020000-01,7020000-01,Salary,account.data_account_type_expenses,FALSE,l10n_ict,7020000-00
7020000-02,7020000-02,Overtime & Incentive,account.data_account_type_expenses,FALSE,l10n_ict,7020000-00
7020000-03,7020000-03,T H R / Natal,account.data_account_type_expenses,FALSE,l10n_ict,7020000-00
7020000-04,7020000-04,Bonus karyawan,account.data_account_type_expenses,FALSE,l10n_ict,7020000-00
7020000-05,7020000-05,Other Salary,account.data_account_type_expenses,FALSE,l10n_ict,7020000-00
7030000-00,7030000-00,Employee Benefit,l10n_ict.data_account_type_view_expense,FALSE,l10n_ict,7000000-00
7030000-01,7030000-01,Medical,account.data_account_type_expenses,FALSE,l10n_ict,7030000-00
7030000-02,7030000-02,Jamsostek,account.data_account_type_expenses,FALSE,l10n_ict,7030000-00
7030000-03,7030000-03,Asuransi,account.data_account_type_expenses,FALSE,l10n_ict,7030000-00
7030000-04,7030000-04,Other Employee Benefit,account.data_account_type_expenses,FALSE,l10n_ict,7030000-00
7040000-00,7040000-00,Internal Training,l10n_ict.data_account_type_view_expense,FALSE,l10n_ict,7000000-00
7040000-01,7040000-01,Domestic Training,account.data_account_type_expenses,FALSE,l10n_ict,7040000-00
7040000-02,7040000-02,Abroad Training,account.data_account_type_expenses,FALSE,l10n_ict,7040000-00
7040000-03,7040000-03,Other Internal Training,account.data_account_type_expenses,FALSE,l10n_ict,7040000-00
7014010-11,7014010-11,Asset Depreciation Office Equipment,account.data_account_type_expenses,FALSE,l10n_ict,7040000-00
7014010-12,7014010-12,Asset Depreciation Furniture and Fixture,account.data_account_type_expenses,FALSE,l10n_ict,7040000-00
7014010-13,7014010-13,Asset Depreciation Vehicles,account.data_account_type_expenses,FALSE,l10n_ict,7040000-00
7050000-00,7050000-00,Stationary,l10n_ict.data_account_type_view_expense,FALSE,l10n_ict,7000000-00
7050000-01,7050000-01,Office Stationery,account.data_account_type_expenses,FALSE,l10n_ict,7050000-00
7050000-02,7050000-02,Office Equipment,account.data_account_type_expenses,FALSE,l10n_ict,7050000-00
7060000-00,7060000-00,Professional Expense,l10n_ict.data_account_type_view_expense,FALSE,l10n_ict,7000000-00
7060000-01,7060000-01,Expatriate Profs. Exp.,account.data_account_type_expenses,FALSE,l10n_ict,7060000-00
7060000-02,7060000-02,Domestic Profs. Exp.,account.data_account_type_expenses,FALSE,l10n_ict,7060000-00
7060000-03,7060000-03,Others Profs. Exp.,account.data_account_type_expenses,FALSE,l10n_ict,7060000-00
7070000-00,7070000-00,Local Transport,l10n_ict.data_account_type_view_expense,FALSE,l10n_ict,7000000-00
7070000-01,7070000-01,Car Exp.,account.data_account_type_expenses,FALSE,l10n_ict,7070000-00
7070000-02,7070000-02,Car Service,account.data_account_type_expenses,FALSE,l10n_ict,7070000-00
7070000-03,7070000-03,Park /TOL Exp.,account.data_account_type_expenses,FALSE,l10n_ict,7070000-00
7070000-04,7070000-04,Fuel,account.data_account_type_expenses,FALSE,l10n_ict,7070000-00
7070000-05,7070000-05,Transport & Taxi,account.data_account_type_expenses,FALSE,l10n_ict,7070000-00
7070000-06,7070000-06,"Tol,Parking",account.data_account_type_expenses,FALSE,l10n_ict,7070000-00
7070000-07,7070000-07,Car Park,account.data_account_type_expenses,FALSE,l10n_ict,7070000-00
7070000-08,7070000-08,Others Local Transport,account.data_account_type_expenses,FALSE,l10n_ict,7070000-00
7080000-00,7080000-00,Travel Expense,l10n_ict.data_account_type_view_expense,FALSE,l10n_ict,7000000-00
7080000-01,7080000-01,Management Travel Exp.,account.data_account_type_expenses,FALSE,l10n_ict,7080000-00
7080000-02,7080000-02,Employee Travel Exp.,account.data_account_type_expenses,FALSE,l10n_ict,7080000-00
7080000-03,7080000-03,Meal & Transport Allowances Exp.,account.data_account_type_expenses,FALSE,l10n_ict,7080000-00
7080000-04,7080000-04,Other Travel Exp.,account.data_account_type_expenses,FALSE,l10n_ict,7080000-00
7080000-05,7080000-05,Other Travel Exp.,account.data_account_type_expenses,FALSE,l10n_ict,7080000-00
7090000-00,7090000-00,Representation & Entertainment,l10n_ict.data_account_type_view_expense,FALSE,l10n_ict,7000000-00
7090000-01,7090000-01,Other Repres. & Ent.,account.data_account_type_expenses,FALSE,l10n_ict,7090000-00
7100000-00,7100000-00,Office Expense,l10n_ict.data_account_type_view_expense,FALSE,l10n_ict,7000000-00
7100000-01,7100000-01,Electricity,account.data_account_type_expenses,FALSE,l10n_ict,7100000-00
7100000-02,7100000-02,Building Expense,account.data_account_type_expenses,FALSE,l10n_ict,7100000-00
7100000-03,7100000-03,Machine Rent,account.data_account_type_expenses,FALSE,l10n_ict,7100000-00
7100000-04,7100000-04,Recruitment Employee,account.data_account_type_expenses,FALSE,l10n_ict,7100000-00
7100000-05,7100000-05,Translater Expense,account.data_account_type_expenses,FALSE,l10n_ict,7100000-00
7100000-06,7100000-06,Cleaning Services,account.data_account_type_expenses,FALSE,l10n_ict,7100000-00
7100000-07,7100000-07,Pantry Expense,account.data_account_type_expenses,FALSE,l10n_ict,7100000-00
7100000-08,7100000-08,Consumption Expenses,account.data_account_type_expenses,FALSE,l10n_ict,7100000-00
7100000-09,7100000-09,Driver Exp.,account.data_account_type_expenses,FALSE,l10n_ict,7100000-00
7100000-10,7100000-10,Name Card Expenses,account.data_account_type_expenses,FALSE,l10n_ict,7100000-00
7100000-11,7100000-11,Distress Expenses,account.data_account_type_expenses,FALSE,l10n_ict,7100000-00
7100000-12,7100000-12,Binding Expenses,account.data_account_type_expenses,FALSE,l10n_ict,7100000-00
7100000-13,7100000-13,By.Sewa Deposit ,account.data_account_type_expenses,FALSE,l10n_ict,7100000-00
7100000-14,7100000-14,BPJS (Company Exp.),account.data_account_type_expenses,FALSE,l10n_ict,7100000-00
7110000-00,7110000-00,Office Expense,l10n_ict.data_account_type_view_expense,FALSE,l10n_ict,7000000-00
7110000-01,7110000-01,Other Office Exp.,account.data_account_type_expenses,FALSE,l10n_ict,7110000-00
7110000-02,7110000-02,Internet,account.data_account_type_expenses,FALSE,l10n_ict,7110000-00
7120000-00,7120000-00,Marketing Expense,l10n_ict.data_account_type_view_expense,FALSE,l10n_ict,7000000-00
7120000-01,7120000-01,Advertising,account.data_account_type_expenses,FALSE,l10n_ict,7120000-00
7120000-02,7120000-02,Exhibition,account.data_account_type_expenses,FALSE,l10n_ict,7120000-00
7120000-03,7120000-03,Brochure,account.data_account_type_expenses,FALSE,l10n_ict,7120000-00
7120000-04,7120000-04,Association Fee,account.data_account_type_expenses,FALSE,l10n_ict,7120000-00
7120000-05,7120000-05,News Subscription,account.data_account_type_expenses,FALSE,l10n_ict,7120000-00
7120000-06,7120000-06,Add. Public Relations,account.data_account_type_expenses,FALSE,l10n_ict,7120000-00
7120000-07,7120000-07,Other Marketing Exp.,account.data_account_type_expenses,FALSE,l10n_ict,7120000-00
7130000-00,7130000-00,Communication,l10n_ict.data_account_type_view_expense,FALSE,l10n_ict,7000000-00
7130000-01,7130000-01,Telephone,account.data_account_type_expenses,FALSE,l10n_ict,7130000-00
7130000-02,7130000-02,Postage / Courier Fee,account.data_account_type_expenses,FALSE,l10n_ict,7130000-00
7130000-03,7130000-03,Add. Communication,account.data_account_type_expenses,FALSE,l10n_ict,7130000-00
7130000-04,7130000-04,Other Communication Exp.,account.data_account_type_expenses,FALSE,l10n_ict,7130000-00
7140000-00,7140000-00,Tax & License,l10n_ict.data_account_type_view_expense,FALSE,l10n_ict,7000000-00
7140000-01,7140000-01,Taxes,account.data_account_type_expenses,FALSE,l10n_ict,7140000-00
7140000-02,7140000-02,Licences,account.data_account_type_expenses,FALSE,l10n_ict,7140000-00
7140000-03,7140000-03,Stamp Duty,account.data_account_type_expenses,FALSE,l10n_ict,7140000-00
7140000-04,7140000-04,Pra-Qualifications,account.data_account_type_expenses,FALSE,l10n_ict,7140000-00
7140000-05,7140000-05,Other Tax & Lic. Exp.,account.data_account_type_expenses,FALSE,l10n_ict,7140000-00
7150000-00,7150000-00,Insurance Expense,l10n_ict.data_account_type_view_expense,FALSE,l10n_ict,7000000-00
7150000-01,7150000-01,Inventory Insurances,account.data_account_type_expenses,FALSE,l10n_ict,7150000-00
7150000-02,7150000-02,Other Insurance Exp.,account.data_account_type_expenses,FALSE,l10n_ict,7150000-00
7160000-00,7160000-00,Depreciation Expense,l10n_ict.data_account_type_view_expense,FALSE,l10n_ict,7000000-00
7160000-01,7160000-01,Building Depr. Exp.,account.data_account_type_expenses,FALSE,l10n_ict,7160000-00
7160000-02,7160000-02,Machine & Equipment Depr. Exp.,account.data_account_type_expenses,FALSE,l10n_ict,7160000-00
7160000-03,7160000-03,Office F & F Depr. Exp.,account.data_account_type_expenses,FALSE,l10n_ict,7160000-00
7160000-04,7160000-04,Car Depr. Exp.,account.data_account_type_expenses,FALSE,l10n_ict,7160000-00
7160000-05,7160000-05,Books Depr. Exp.,account.data_account_type_expenses,FALSE,l10n_ict,7160000-00
8000000-00,8000000-00,Pendapatan Lain,l10n_ict.data_account_type_view_expense,FALSE,l10n_ict,
8010000-00,8010000-00,Other Income,l10n_ict.data_account_type_view_expense,FALSE,l10n_ict,8000000-00
8010000-01,8010000-01,Defferead Charge,account.data_account_type_expenses,FALSE,l10n_ict,8010000-00
8010000-02,8010000-02,Bank Interests,account.data_account_type_expenses,FALSE,l10n_ict,8010000-00
8010000-03,8010000-03,Conversion Rate,account.data_account_type_expenses,FALSE,l10n_ict,8010000-00
8010000-04,8010000-04,Bank Charges,account.data_account_type_expenses,FALSE,l10n_ict,8010000-00
8010000-05,8010000-05,Kurs Devaluasi,account.data_account_type_expenses,FALSE,l10n_ict,8010000-00
8010000-06,8010000-06,Bunga atas Loan Kary.,account.data_account_type_expenses,FALSE,l10n_ict,8010000-00
8010000-07,8010000-07,Deposito Interest,account.data_account_type_expenses,FALSE,l10n_ict,8010000-00
8010000-08,8010000-08,Laba Diserap,account.data_account_type_expenses,FALSE,l10n_ict,8010000-00
8010000-09,8010000-09,Others,account.data_account_type_expenses,FALSE,l10n_ict,8010000-00
9000000-00,9000000-00,Pengeluaran Lain,l10n_ict.data_account_type_view_expense,FALSE,l10n_ict,
9010000-00,9010000-00,Other Expences,l10n_ict.data_account_type_view_expense,FALSE,l10n_ict,9000000-00
9010000-01,9010000-01,Financial Institution Loan Interest,account.data_account_type_expenses,FALSE,l10n_ict,9010000-00
9010000-02,9010000-02,Conversion Rate,account.data_account_type_expenses,FALSE,l10n_ict,9010000-00
9010000-03,9010000-03,Bank Charges/Adm.,account.data_account_type_expenses,FALSE,l10n_ict,9010000-00
9010000-04,9010000-04,Other,account.data_account_type_expenses,FALSE,l10n_ict,9010000-00
